<?xml version="1.0" encoding="utf-8"?>
<!DOCTYPE eagle SYSTEM "eagle.dtd">
<eagle version="9.1.0">
<drawing>
<settings>
<setting alwaysvectorfont="no"/>
<setting verticaltext="up"/>
</settings>
<grid distance="0.1" unitdist="inch" unit="inch" style="lines" multiple="1" display="no" altdistance="0.01" altunitdist="inch" altunit="inch"/>
<layers>
<layer number="1" name="Top" color="4" fill="1" visible="yes" active="yes"/>
<layer number="16" name="Bottom" color="1" fill="1" visible="yes" active="yes"/>
<layer number="17" name="Pads" color="2" fill="1" visible="yes" active="yes"/>
<layer number="18" name="Vias" color="2" fill="1" visible="yes" active="yes"/>
<layer number="19" name="Unrouted" color="6" fill="1" visible="yes" active="yes"/>
<layer number="20" name="Dimension" color="24" fill="1" visible="yes" active="yes"/>
<layer number="21" name="tPlace" color="7" fill="1" visible="yes" active="yes"/>
<layer number="22" name="bPlace" color="7" fill="1" visible="yes" active="yes"/>
<layer number="23" name="tOrigins" color="15" fill="1" visible="yes" active="yes"/>
<layer number="24" name="bOrigins" color="15" fill="1" visible="yes" active="yes"/>
<layer number="25" name="tNames" color="7" fill="1" visible="yes" active="yes"/>
<layer number="26" name="bNames" color="7" fill="1" visible="yes" active="yes"/>
<layer number="27" name="tValues" color="7" fill="1" visible="yes" active="yes"/>
<layer number="28" name="bValues" color="7" fill="1" visible="yes" active="yes"/>
<layer number="29" name="tStop" color="7" fill="3" visible="no" active="yes"/>
<layer number="30" name="bStop" color="7" fill="6" visible="no" active="yes"/>
<layer number="31" name="tCream" color="7" fill="4" visible="no" active="yes"/>
<layer number="32" name="bCream" color="7" fill="5" visible="no" active="yes"/>
<layer number="33" name="tFinish" color="6" fill="3" visible="no" active="yes"/>
<layer number="34" name="bFinish" color="6" fill="6" visible="no" active="yes"/>
<layer number="35" name="tGlue" color="7" fill="4" visible="no" active="yes"/>
<layer number="36" name="bGlue" color="7" fill="5" visible="no" active="yes"/>
<layer number="37" name="tTest" color="7" fill="1" visible="no" active="yes"/>
<layer number="38" name="bTest" color="7" fill="1" visible="no" active="yes"/>
<layer number="39" name="tKeepout" color="4" fill="11" visible="yes" active="yes"/>
<layer number="40" name="bKeepout" color="1" fill="11" visible="yes" active="yes"/>
<layer number="41" name="tRestrict" color="4" fill="10" visible="yes" active="yes"/>
<layer number="42" name="bRestrict" color="1" fill="10" visible="yes" active="yes"/>
<layer number="43" name="vRestrict" color="2" fill="10" visible="yes" active="yes"/>
<layer number="44" name="Drills" color="7" fill="1" visible="no" active="yes"/>
<layer number="45" name="Holes" color="7" fill="1" visible="no" active="yes"/>
<layer number="46" name="Milling" color="3" fill="1" visible="no" active="yes"/>
<layer number="47" name="Measures" color="7" fill="1" visible="no" active="yes"/>
<layer number="48" name="Document" color="7" fill="1" visible="yes" active="yes"/>
<layer number="49" name="Reference" color="7" fill="1" visible="yes" active="yes"/>
<layer number="51" name="tDocu" color="7" fill="1" visible="yes" active="yes"/>
<layer number="52" name="bDocu" color="7" fill="1" visible="yes" active="yes"/>
<layer number="88" name="SimResults" color="9" fill="1" visible="yes" active="yes"/>
<layer number="89" name="SimProbes" color="9" fill="1" visible="yes" active="yes"/>
<layer number="90" name="Modules" color="5" fill="1" visible="yes" active="yes"/>
<layer number="91" name="Nets" color="2" fill="1" visible="yes" active="yes"/>
<layer number="92" name="Busses" color="1" fill="1" visible="yes" active="yes"/>
<layer number="93" name="Pins" color="2" fill="1" visible="yes" active="yes"/>
<layer number="94" name="Symbols" color="4" fill="1" visible="yes" active="yes"/>
<layer number="95" name="Names" color="7" fill="1" visible="yes" active="yes"/>
<layer number="96" name="Values" color="7" fill="1" visible="yes" active="yes"/>
<layer number="97" name="Info" color="7" fill="1" visible="yes" active="yes"/>
<layer number="98" name="Guide" color="6" fill="1" visible="yes" active="yes"/>
</layers>
<library>
<packages>
<package name="DCK5">
<smd name="1" x="-0.81915" y="0.65" dx="1.4605" dy="0.3556" layer="1"/>
<smd name="5" x="-0.81915" y="-0.65" dx="1.4605" dy="0.3556" layer="1"/>
<smd name="4" x="0.81915" y="-0.65" dx="1.4605" dy="0.3556" layer="1"/>
<smd name="3" x="0.81915" y="0" dx="1.4605" dy="0.3556" layer="1"/>
<smd name="2" x="0.81915" y="0.65" dx="1.4605" dy="0.3556" layer="1"/>
<wire x1="-0.9652" y1="-1.3208" x2="-0.9652" y2="-1.0922" width="0.1524" layer="39"/>
<wire x1="-0.9652" y1="-1.0922" x2="-1.8034" y2="-1.0922" width="0.1524" layer="39"/>
<wire x1="-1.8034" y1="-1.0922" x2="-1.8034" y2="1.0922" width="0.1524" layer="39"/>
<wire x1="-1.8034" y1="1.0922" x2="-0.9652" y2="1.0922" width="0.1524" layer="39"/>
<wire x1="-0.9652" y1="1.0922" x2="-0.9652" y2="1.3208" width="0.1524" layer="39"/>
<wire x1="-0.9652" y1="1.3208" x2="0.9652" y2="1.3208" width="0.1524" layer="39"/>
<wire x1="0.9652" y1="1.3208" x2="0.9652" y2="1.0922" width="0.1524" layer="39"/>
<wire x1="0.9652" y1="1.0922" x2="1.8034" y2="1.0922" width="0.1524" layer="39"/>
<wire x1="1.8034" y1="1.0922" x2="1.8034" y2="-1.0922" width="0.1524" layer="39"/>
<wire x1="1.8034" y1="-1.0922" x2="0.9652" y2="-1.0922" width="0.1524" layer="39"/>
<wire x1="0.9652" y1="-1.0922" x2="0.9652" y2="-1.3208" width="0.1524" layer="39"/>
<wire x1="0.9652" y1="-1.3208" x2="-0.9652" y2="-1.3208" width="0.1524" layer="39"/>
<polygon width="0.1524" layer="39">
<vertex x="-0.9525" y="-1.3335"/>
<vertex x="-0.9525" y="-1.0818"/>
<vertex x="-1.8034" y="-1.0818"/>
<vertex x="-1.8034" y="1.0818"/>
<vertex x="-0.9525" y="1.0818"/>
<vertex x="-0.9525" y="1.3335"/>
<vertex x="0.9525" y="1.3335"/>
<vertex x="0.9525" y="1.0818"/>
<vertex x="1.8034" y="1.0818"/>
<vertex x="1.8034" y="-1.0818"/>
<vertex x="0.9525" y="-1.0818"/>
<vertex x="0.9525" y="-1.3335"/>
</polygon>
<wire x1="-0.8128" y1="-1.2192" x2="0.8128" y2="-1.2192" width="0.1524" layer="21"/>
<wire x1="0.8128" y1="1.2192" x2="-0.8128" y2="1.2192" width="0.1524" layer="21"/>
<wire x1="-0.8128" y1="0.127" x2="-0.8128" y2="-0.127" width="0.1524" layer="21"/>
<text x="-1.651" y="0.889" size="1.27" layer="21" ratio="6" rot="SR0">*</text>
<wire x1="-0.7112" y1="-1.0668" x2="0.7112" y2="-1.0668" width="0.1524" layer="51"/>
<wire x1="0.7112" y1="-1.0668" x2="0.7112" y2="-0.8128" width="0.1524" layer="51"/>
<wire x1="0.7112" y1="-0.8128" x2="0.7112" y2="-0.1524" width="0.1524" layer="51"/>
<wire x1="0.7112" y1="-0.1524" x2="0.7112" y2="1.0668" width="0.1524" layer="51"/>
<wire x1="0.7112" y1="1.0668" x2="-0.3048" y2="1.0668" width="0.1524" layer="51"/>
<wire x1="-0.3048" y1="1.0668" x2="-0.7112" y2="1.0668" width="0.1524" layer="51"/>
<wire x1="-0.7112" y1="1.0668" x2="-0.7112" y2="0.8128" width="0.1524" layer="51"/>
<wire x1="-0.7112" y1="0.8128" x2="-0.7112" y2="-0.508" width="0.1524" layer="51"/>
<wire x1="-0.7112" y1="-0.508" x2="-0.7112" y2="-1.0668" width="0.1524" layer="51"/>
<wire x1="-0.6858" y1="0.508" x2="-0.7112" y2="0.8128" width="0.1524" layer="51"/>
<wire x1="-0.7112" y1="0.8128" x2="-1.1938" y2="0.8128" width="0.1524" layer="51"/>
<wire x1="-1.1938" y1="0.8128" x2="-1.1938" y2="0.508" width="0.1524" layer="51"/>
<wire x1="-1.1938" y1="0.508" x2="-0.6858" y2="0.508" width="0.1524" layer="51"/>
<wire x1="-0.6858" y1="-0.8128" x2="-0.7112" y2="-0.508" width="0.1524" layer="51"/>
<wire x1="-0.7112" y1="-0.508" x2="-1.1938" y2="-0.508" width="0.1524" layer="51"/>
<wire x1="-1.1938" y1="-0.508" x2="-1.1938" y2="-0.8128" width="0.1524" layer="51"/>
<wire x1="-1.1938" y1="-0.8128" x2="-0.6858" y2="-0.8128" width="0.1524" layer="51"/>
<wire x1="0.6858" y1="-0.508" x2="0.7112" y2="-0.8128" width="0.1524" layer="51"/>
<wire x1="0.7112" y1="-0.8128" x2="1.1938" y2="-0.8128" width="0.1524" layer="51"/>
<wire x1="1.1938" y1="-0.8128" x2="1.1938" y2="-0.508" width="0.1524" layer="51"/>
<wire x1="1.1938" y1="-0.508" x2="0.6858" y2="-0.508" width="0.1524" layer="51"/>
<wire x1="0.6858" y1="0.1524" x2="0.7112" y2="-0.1524" width="0.1524" layer="51"/>
<wire x1="0.7112" y1="-0.1524" x2="1.1938" y2="-0.1524" width="0.1524" layer="51"/>
<wire x1="1.1938" y1="-0.1524" x2="1.1938" y2="0.1524" width="0.1524" layer="51"/>
<wire x1="1.1938" y1="0.1524" x2="0.6858" y2="0.1524" width="0.1524" layer="51"/>
<wire x1="0.6858" y1="0.8128" x2="0.6858" y2="0.508" width="0.1524" layer="51"/>
<wire x1="0.6858" y1="0.508" x2="1.1938" y2="0.508" width="0.1524" layer="51"/>
<wire x1="1.1938" y1="0.508" x2="1.1938" y2="0.8128" width="0.1524" layer="51"/>
<wire x1="1.1938" y1="0.8128" x2="0.6858" y2="0.8128" width="0.1524" layer="51"/>
<wire x1="0.3048" y1="1.0922" x2="-0.3048" y2="1.0668" width="0.1524" layer="51" curve="-180"/>
<text x="-1.016" y="-0.0762" size="1.27" layer="51" ratio="6" rot="SR0">*</text>
<wire x1="-0.254" y1="0" x2="0.254" y2="0" width="0.1524" layer="23"/>
<wire x1="0" y1="-0.254" x2="0" y2="0.254" width="0.1524" layer="23"/>
<text x="-3.2766" y="-0.635" size="1.27" layer="25" ratio="6" rot="SR0">&gt;Name</text>
</package>
<package name="DCK5-M">
<smd name="1" x="-0.86995" y="0.65" dx="1.7653" dy="0.4064" layer="1"/>
<smd name="2" x="-0.86995" y="-0.65" dx="1.7653" dy="0.4064" layer="1"/>
<smd name="3" x="0.86995" y="-0.65" dx="1.7653" dy="0.4064" layer="1"/>
<smd name="4" x="0.86995" y="0" dx="1.7653" dy="0.4064" layer="1"/>
<smd name="5" x="0.86995" y="0.65" dx="1.7653" dy="0.4064" layer="1"/>
<wire x1="-1.2192" y1="-1.5748" x2="-1.2192" y2="-1.3716" width="0.1524" layer="39"/>
<wire x1="-1.2192" y1="-1.3716" x2="-2.2606" y2="-1.3716" width="0.1524" layer="39"/>
<wire x1="-2.2606" y1="-1.3716" x2="-2.2606" y2="1.3716" width="0.1524" layer="39"/>
<wire x1="-2.2606" y1="1.3716" x2="-1.2192" y2="1.3716" width="0.1524" layer="39"/>
<wire x1="-1.2192" y1="1.3716" x2="-1.2192" y2="1.5748" width="0.1524" layer="39"/>
<wire x1="-1.2192" y1="1.5748" x2="1.2192" y2="1.5748" width="0.1524" layer="39"/>
<wire x1="1.2192" y1="1.5748" x2="1.2192" y2="1.3716" width="0.1524" layer="39"/>
<wire x1="1.2192" y1="1.3716" x2="2.2606" y2="1.3716" width="0.1524" layer="39"/>
<wire x1="2.2606" y1="1.3716" x2="2.2606" y2="-1.3716" width="0.1524" layer="39"/>
<wire x1="2.2606" y1="-1.3716" x2="1.2192" y2="-1.3716" width="0.1524" layer="39"/>
<wire x1="1.2192" y1="-1.3716" x2="1.2192" y2="-1.5748" width="0.1524" layer="39"/>
<wire x1="1.2192" y1="-1.5748" x2="-1.2192" y2="-1.5748" width="0.1524" layer="39"/>
<polygon width="0.1524" layer="39">
<vertex x="-1.2065" y="-1.5875"/>
<vertex x="-1.2065" y="-1.3612"/>
<vertex x="-2.2606" y="-1.3612"/>
<vertex x="-2.2606" y="1.3612"/>
<vertex x="-1.2065" y="1.3612"/>
<vertex x="-1.2065" y="1.5875"/>
<vertex x="1.2065" y="1.5875"/>
<vertex x="1.2065" y="1.3612"/>
<vertex x="2.2606" y="1.3612"/>
<vertex x="2.2606" y="-1.3612"/>
<vertex x="1.2065" y="-1.3612"/>
<vertex x="1.2065" y="-1.5875"/>
</polygon>
<wire x1="-0.8128" y1="-1.2192" x2="0.8128" y2="-1.2192" width="0.1524" layer="21"/>
<wire x1="0.8128" y1="1.2192" x2="-0.8128" y2="1.2192" width="0.1524" layer="21"/>
<wire x1="-0.8128" y1="0.1016" x2="-0.8128" y2="-0.1016" width="0.1524" layer="21"/>
<text x="-1.7018" y="0.9398" size="1.27" layer="21" ratio="6" rot="SR0">*</text>
<wire x1="-0.7112" y1="-1.0668" x2="0.7112" y2="-1.0668" width="0.1524" layer="51"/>
<wire x1="0.7112" y1="-1.0668" x2="0.7112" y2="-0.8128" width="0.1524" layer="51"/>
<wire x1="0.7112" y1="-0.8128" x2="0.7112" y2="-0.1524" width="0.1524" layer="51"/>
<wire x1="0.7112" y1="-0.1524" x2="0.7112" y2="1.0668" width="0.1524" layer="51"/>
<wire x1="0.7112" y1="1.0668" x2="-0.3048" y2="1.0668" width="0.1524" layer="51"/>
<wire x1="-0.3048" y1="1.0668" x2="-0.7112" y2="1.0668" width="0.1524" layer="51"/>
<wire x1="-0.7112" y1="1.0668" x2="-0.7112" y2="0.8128" width="0.1524" layer="51"/>
<wire x1="-0.7112" y1="0.8128" x2="-0.7112" y2="-0.508" width="0.1524" layer="51"/>
<wire x1="-0.7112" y1="-0.508" x2="-0.7112" y2="-1.0668" width="0.1524" layer="51"/>
<wire x1="-0.6858" y1="0.508" x2="-0.7112" y2="0.8128" width="0.1524" layer="51"/>
<wire x1="-0.7112" y1="0.8128" x2="-1.1938" y2="0.8128" width="0.1524" layer="51"/>
<wire x1="-1.1938" y1="0.8128" x2="-1.1938" y2="0.508" width="0.1524" layer="51"/>
<wire x1="-1.1938" y1="0.508" x2="-0.6858" y2="0.508" width="0.1524" layer="51"/>
<wire x1="-0.6858" y1="-0.8128" x2="-0.7112" y2="-0.508" width="0.1524" layer="51"/>
<wire x1="-0.7112" y1="-0.508" x2="-1.1938" y2="-0.508" width="0.1524" layer="51"/>
<wire x1="-1.1938" y1="-0.508" x2="-1.1938" y2="-0.8128" width="0.1524" layer="51"/>
<wire x1="-1.1938" y1="-0.8128" x2="-0.6858" y2="-0.8128" width="0.1524" layer="51"/>
<wire x1="0.6858" y1="-0.508" x2="0.7112" y2="-0.8128" width="0.1524" layer="51"/>
<wire x1="0.7112" y1="-0.8128" x2="1.1938" y2="-0.8128" width="0.1524" layer="51"/>
<wire x1="1.1938" y1="-0.8128" x2="1.1938" y2="-0.508" width="0.1524" layer="51"/>
<wire x1="1.1938" y1="-0.508" x2="0.6858" y2="-0.508" width="0.1524" layer="51"/>
<wire x1="0.6858" y1="0.1524" x2="0.7112" y2="-0.1524" width="0.1524" layer="51"/>
<wire x1="0.7112" y1="-0.1524" x2="1.1938" y2="-0.1524" width="0.1524" layer="51"/>
<wire x1="1.1938" y1="-0.1524" x2="1.1938" y2="0.1524" width="0.1524" layer="51"/>
<wire x1="1.1938" y1="0.1524" x2="0.6858" y2="0.1524" width="0.1524" layer="51"/>
<wire x1="0.6858" y1="0.8128" x2="0.6858" y2="0.508" width="0.1524" layer="51"/>
<wire x1="0.6858" y1="0.508" x2="1.1938" y2="0.508" width="0.1524" layer="51"/>
<wire x1="1.1938" y1="0.508" x2="1.1938" y2="0.8128" width="0.1524" layer="51"/>
<wire x1="1.1938" y1="0.8128" x2="0.6858" y2="0.8128" width="0.1524" layer="51"/>
<wire x1="0.3048" y1="1.0922" x2="-0.3048" y2="1.0668" width="0.1524" layer="51" curve="-180"/>
<text x="-1.016" y="-0.0254" size="1.27" layer="51" ratio="6" rot="SR0">*</text>
<wire x1="-0.254" y1="0" x2="0.254" y2="0" width="0.1524" layer="23"/>
<wire x1="0" y1="-0.254" x2="0" y2="0.254" width="0.1524" layer="23"/>
<text x="-3.2766" y="-0.635" size="1.27" layer="25" ratio="6" rot="SR0">&gt;Name</text>
</package>
<package name="DCK5-L">
<smd name="1" x="-0.76835" y="0.65" dx="1.1557" dy="0.3048" layer="1"/>
<smd name="2" x="-0.76835" y="-0.65" dx="1.1557" dy="0.3048" layer="1"/>
<smd name="3" x="0.76835" y="-0.65" dx="1.1557" dy="0.3048" layer="1"/>
<smd name="4" x="0.76835" y="0" dx="1.1557" dy="0.3048" layer="1"/>
<smd name="5" x="0.76835" y="0.65" dx="1.1557" dy="0.3048" layer="1"/>
<wire x1="-0.8128" y1="-1.1684" x2="-0.8128" y2="-0.9144" width="0.1524" layer="39"/>
<wire x1="-0.8128" y1="-0.9144" x2="-1.4478" y2="-0.9144" width="0.1524" layer="39"/>
<wire x1="-1.4478" y1="-0.9144" x2="-1.4478" y2="0.9144" width="0.1524" layer="39"/>
<wire x1="-1.4478" y1="0.9144" x2="-0.8128" y2="0.9144" width="0.1524" layer="39"/>
<wire x1="-0.8128" y1="0.9144" x2="-0.8128" y2="1.1684" width="0.1524" layer="39"/>
<wire x1="-0.8128" y1="1.1684" x2="0.8128" y2="1.1684" width="0.1524" layer="39"/>
<wire x1="0.8128" y1="1.1684" x2="0.8128" y2="0.9144" width="0.1524" layer="39"/>
<wire x1="0.8128" y1="0.9144" x2="1.4478" y2="0.9144" width="0.1524" layer="39"/>
<wire x1="1.4478" y1="0.9144" x2="1.4478" y2="-0.9144" width="0.1524" layer="39"/>
<wire x1="1.4478" y1="-0.9144" x2="0.8128" y2="-0.9144" width="0.1524" layer="39"/>
<wire x1="0.8128" y1="-0.9144" x2="0.8128" y2="-1.1684" width="0.1524" layer="39"/>
<wire x1="0.8128" y1="-1.1684" x2="-0.8128" y2="-1.1684" width="0.1524" layer="39"/>
<polygon width="0.1524" layer="39">
<vertex x="-0.8001" y="-1.1811"/>
<vertex x="-0.8001" y="-0.904"/>
<vertex x="-1.4478" y="-0.904"/>
<vertex x="-1.4478" y="0.904"/>
<vertex x="-0.8001" y="0.904"/>
<vertex x="-0.8001" y="1.1811"/>
<vertex x="0.8001" y="1.1811"/>
<vertex x="0.8001" y="0.904"/>
<vertex x="1.4478" y="0.904"/>
<vertex x="1.4478" y="-0.904"/>
<vertex x="0.8001" y="-0.904"/>
<vertex x="0.8001" y="-1.1811"/>
</polygon>
<wire x1="-0.8128" y1="-1.2192" x2="0.8128" y2="-1.2192" width="0.1524" layer="21"/>
<wire x1="0.8128" y1="1.2192" x2="-0.8128" y2="1.2192" width="0.1524" layer="21"/>
<wire x1="-0.8128" y1="0.1524" x2="-0.8128" y2="-0.1524" width="0.1524" layer="21"/>
<text x="-1.6002" y="0.8382" size="1.27" layer="21" ratio="6" rot="SR0">*</text>
<wire x1="-0.7112" y1="-1.0668" x2="0.7112" y2="-1.0668" width="0.1524" layer="51"/>
<wire x1="0.7112" y1="-1.0668" x2="0.7112" y2="-0.8128" width="0.1524" layer="51"/>
<wire x1="0.7112" y1="-0.8128" x2="0.7112" y2="-0.1524" width="0.1524" layer="51"/>
<wire x1="0.7112" y1="-0.1524" x2="0.7112" y2="1.0668" width="0.1524" layer="51"/>
<wire x1="0.7112" y1="1.0668" x2="-0.3048" y2="1.0668" width="0.1524" layer="51"/>
<wire x1="-0.3048" y1="1.0668" x2="-0.7112" y2="1.0668" width="0.1524" layer="51"/>
<wire x1="-0.7112" y1="1.0668" x2="-0.7112" y2="0.8128" width="0.1524" layer="51"/>
<wire x1="-0.7112" y1="0.8128" x2="-0.7112" y2="-0.508" width="0.1524" layer="51"/>
<wire x1="-0.7112" y1="-0.508" x2="-0.7112" y2="-1.0668" width="0.1524" layer="51"/>
<wire x1="-0.6858" y1="0.508" x2="-0.7112" y2="0.8128" width="0.1524" layer="51"/>
<wire x1="-0.7112" y1="0.8128" x2="-1.1938" y2="0.8128" width="0.1524" layer="51"/>
<wire x1="-1.1938" y1="0.8128" x2="-1.1938" y2="0.508" width="0.1524" layer="51"/>
<wire x1="-1.1938" y1="0.508" x2="-0.6858" y2="0.508" width="0.1524" layer="51"/>
<wire x1="-0.6858" y1="-0.8128" x2="-0.7112" y2="-0.508" width="0.1524" layer="51"/>
<wire x1="-0.7112" y1="-0.508" x2="-1.1938" y2="-0.508" width="0.1524" layer="51"/>
<wire x1="-1.1938" y1="-0.508" x2="-1.1938" y2="-0.8128" width="0.1524" layer="51"/>
<wire x1="-1.1938" y1="-0.8128" x2="-0.6858" y2="-0.8128" width="0.1524" layer="51"/>
<wire x1="0.6858" y1="-0.508" x2="0.7112" y2="-0.8128" width="0.1524" layer="51"/>
<wire x1="0.7112" y1="-0.8128" x2="1.1938" y2="-0.8128" width="0.1524" layer="51"/>
<wire x1="1.1938" y1="-0.8128" x2="1.1938" y2="-0.508" width="0.1524" layer="51"/>
<wire x1="1.1938" y1="-0.508" x2="0.6858" y2="-0.508" width="0.1524" layer="51"/>
<wire x1="0.6858" y1="0.1524" x2="0.7112" y2="-0.1524" width="0.1524" layer="51"/>
<wire x1="0.7112" y1="-0.1524" x2="1.1938" y2="-0.1524" width="0.1524" layer="51"/>
<wire x1="1.1938" y1="-0.1524" x2="1.1938" y2="0.1524" width="0.1524" layer="51"/>
<wire x1="1.1938" y1="0.1524" x2="0.6858" y2="0.1524" width="0.1524" layer="51"/>
<wire x1="0.6858" y1="0.8128" x2="0.6858" y2="0.508" width="0.1524" layer="51"/>
<wire x1="0.6858" y1="0.508" x2="1.1938" y2="0.508" width="0.1524" layer="51"/>
<wire x1="1.1938" y1="0.508" x2="1.1938" y2="0.8128" width="0.1524" layer="51"/>
<wire x1="1.1938" y1="0.8128" x2="0.6858" y2="0.8128" width="0.1524" layer="51"/>
<wire x1="0.3048" y1="1.0922" x2="-0.3048" y2="1.0668" width="0.1524" layer="51" curve="-180"/>
<text x="-1.016" y="-0.127" size="1.27" layer="51" ratio="6" rot="SR0">*</text>
<wire x1="-0.254" y1="0" x2="0.254" y2="0" width="0.1524" layer="23"/>
<wire x1="0" y1="-0.254" x2="0" y2="0.254" width="0.1524" layer="23"/>
<text x="-3.2766" y="-0.635" size="1.27" layer="25" ratio="6" rot="SR0">&gt;Name</text>
</package>
</packages>
<symbols>
<symbol name="TPS71550QDCKRQ1">
<pin name="IN" x="2.54" y="0" length="middle" direction="in"/>
<pin name="FB/NC" x="2.54" y="-5.08" length="middle"/>
<pin name="NC" x="2.54" y="-10.16" length="middle" direction="nc"/>
<pin name="OUT" x="38.1" y="0" length="middle" direction="out" rot="R180"/>
<pin name="GND" x="38.1" y="-10.16" length="middle" direction="pwr" rot="R180"/>
<wire x1="7.62" y1="5.08" x2="7.62" y2="-15.24" width="0.1524" layer="94"/>
<wire x1="7.62" y1="-15.24" x2="33.02" y2="-15.24" width="0.1524" layer="94"/>
<wire x1="33.02" y1="-15.24" x2="33.02" y2="5.08" width="0.1524" layer="94"/>
<wire x1="33.02" y1="5.08" x2="7.62" y2="5.08" width="0.1524" layer="94"/>
<text x="15.5956" y="9.1186" size="2.0828" layer="95" ratio="6" rot="SR0">&gt;Name</text>
<text x="14.9606" y="6.5786" size="2.0828" layer="96" ratio="6" rot="SR0">&gt;Value</text>
</symbol>
</symbols>
<devicesets>
<deviceset name="TPS71550QDCKRQ1" prefix="U">
<gates>
<gate name="A" symbol="TPS71550QDCKRQ1" x="0" y="0"/>
</gates>
<devices>
<device name="" package="DCK5">
<connects>
<connect gate="A" pin="FB/NC" pad="1"/>
<connect gate="A" pin="GND" pad="2"/>
<connect gate="A" pin="IN" pad="4"/>
<connect gate="A" pin="NC" pad="3"/>
<connect gate="A" pin="OUT" pad="5"/>
</connects>
<technologies>
<technology name="">
<attribute name="MANUFACTURER_PART_NUMBER" value="TPS71550QDCKRQ1" constant="no"/>
<attribute name="VENDOR" value="Texas Instruments" constant="no"/>
</technology>
</technologies>
</device>
<device name="DCK5-M" package="DCK5-M">
<connects>
<connect gate="A" pin="FB/NC" pad="1"/>
<connect gate="A" pin="GND" pad="2"/>
<connect gate="A" pin="IN" pad="4"/>
<connect gate="A" pin="NC" pad="3"/>
<connect gate="A" pin="OUT" pad="5"/>
</connects>
<technologies>
<technology name="">
<attribute name="MANUFACTURER_PART_NUMBER" value="TPS71550QDCKRQ1" constant="no"/>
<attribute name="VENDOR" value="Texas Instruments" constant="no"/>
</technology>
</technologies>
</device>
<device name="DCK5-L" package="DCK5-L">
<connects>
<connect gate="A" pin="FB/NC" pad="1"/>
<connect gate="A" pin="GND" pad="2"/>
<connect gate="A" pin="IN" pad="4"/>
<connect gate="A" pin="NC" pad="3"/>
<connect gate="A" pin="OUT" pad="5"/>
</connects>
<technologies>
<technology name="">
<attribute name="MANUFACTURER_PART_NUMBER" value="TPS71550QDCKRQ1" constant="no"/>
<attribute name="VENDOR" value="Texas Instruments" constant="no"/>
</technology>
</technologies>
</device>
</devices>
</deviceset>
</devicesets>
</library>
</drawing>
</eagle>
